results/FPGA_OUTPUT_TEST.csv

#Digilent WaveForms Oscilloscope Acquisition
#Device Name: Discovery2NI
#Serial Number: SN:210321ABE20B
#Date Time: 2021-12-18 19:01:30.078
#Sample rate: 2.5e+07Hz
#Samples: 8192
#Trigger: Source: Channel 1 Type: Pulse Condition: Positive Level: 70 uV LCondition: Less Length: 500 ms Hyst.: 100 mV HoldOff: 100 ns
#Channel 1: Range: 1 V/div Offset: 0.3 div Attenuation: 1 X
#Channel 2: Range: 1 V/div Offset: -4 V Attenuation: 1 X

Time (s),Channel 1 (V),Channel 2 (V)
-0.0002539199519807923,-0.03168648615037623,3.351035565472323
-0.0002538799519807923,-0.02047418989072834,3.351035565472319
-0.0002538399519807923,-0.03168648615037283,3.347293296962466
-0.0002537999519807923,-0.02421162197727424,3.362262371001907
-0.0002537599519807923,-0.02421162197727594,3.347293296962458
-0.0002537199519807923,-0.03542391823692892,3.343551028452596
-0.0002536799519807923,-0.03916135032347141,3.3435510284526
-0.0002536399519807923,-0.02794905406382353,3.347293296962456
-0.0002535999519807923,-0.02794905406382353,3.339808759942732
-0.0002535599519807923,-0.02421162197727254,3.339808759942734
-0.0002535199519807923,-0.02794905406382353,3.343551028452596
-0.0002534799519807923,-0.02047418989072494,3.343551028452592
-0.0002534399519807923,-0.02794905406382523,3.339808759942736
-0.0002533999519807923,-0.03168648615037623,3.34729329696246
-0.0002533599519807923,-0.02794905406382353,3.347293296962456
-0.0002533199519807923,-0.02794905406382523,3.343551028452592
-0.0002532799519807923,-0.03168648615037453,3.336066491432873
-0.0002532399519807923,-0.02421162197726744,3.347293296962456
-0.0002531999519807923,-0.01673675780416545,3.339808759942732
-0.0002531599519807923,-0.03542391823691533,3.332324222923012
-0.0002531199519807923,-0.02047418989072154,3.339808759942729
-0.0002530799519807923,-0.02794905406382353,3.332324222923006
-0.0002530399519807923,-0.03168648615037283,3.339808759942732
-0.0002529999519807923,-0.02794905406382353,3.339808759942732
-0.0002529599519807923,-0.02421162197727254,3.332324222923009
-0.0002529199519807923,-0.03542391823692382,3.339808759942734
-0.0002528799519807923,-0.02421162197727084,3.343551028452596
-0.0002528399519807923,-0.02794905406382353,3.336066491432869
-0.0002527999519807923,-0.02794905406382183,3.336066491432874
-0.0002527599519807923,-0.02421162197727084,3.34729329696246
-0.0002527199519807923,-0.02794905406382183,3.343551028452592
-0.0002526799519807923,-0.02421162197727084,3.336066491432869
-0.0002526399519807923,-0.02421162197727084,3.332324222923009
-0.0002525999519807923,-0.02421162197726574,3.336066491432869
-0.0002525599519807923,-0.01299932571761275,3.336066491432869
-0.0002525199519807923,-0.02421162197726404,3.332324222923009
-0.0002524799519807923,-0.01673675780416715,3.336066491432867
-0.0002524399519807923,-0.02047418989071644,3.332324222923007
-0.0002523999519807923,-0.02047418989071984,3.328581954413142
-0.0002523599519807923,-0.02421162197727084,3.328581954413142
-0.0002523199519807923,-0.02794905406382353,3.336066491432866
-0.0002522799519807923,-0.02794905406382183,3.332324222923006
-0.0002522399519807923,-0.02421162197727084,3.332324222923006
-0.0002521999519807923,-0.02794905406382013,3.328581954413142
-0.0002521599519807923,-0.02421162197727084,3.328581954413142
-0.0002521199519807923,-0.03168648615036943,3.332324222922995
-0.0002520799519807923,-0.02421162197727084,3.321097417393415
-0.0002520399519807923,-0.02421162197727084,3.321097417393415
-0.0002519999519807923,-0.02047418989071474,3.332324222923006
-0.0002519599519807923,-0.01673675780417055,3.332324222923004
-0.0002519199519807923,-0.02794905406382353,3.328581954413142
-0.0002518799519807923,-0.01673675780417055,3.328581954413147
-0.0002518399519807923,-0.02794905406382353,3.339808759942732
-0.0002517999519807923,-0.02421162197727424,3.332324222923006
-0.0002517599519807923,-0.02794905406381843,3.332324222923002
-0.0002517199519807923,-0.01673675780416545,3.324839685903279
-0.0002516799519807923,-0.02421162197726744,3.336066491432866
-0.0002516399519807923,-0.02047418989071814,3.332324222923006
-0.0002515999519807923,-0.01673675780416715,3.332324222923006
-0.0002515599519807923,-0.01299932571761445,3.336066491432869
-0.0002515199519807923,-0.01673675780416545,3.336066491432869
-0.0002514799519807923,-0.02421162197727084,3.328581954413142
-0.0002514399519807923,-0.02421162197726914,3.328581954413144
-0.0002513999519807923,-0.02047418989071814,3.332324222923006
-0.0002513599519807923,-0.02794905406382353,3.328581954413147
-0.0002513199519807923,-0.02794905406382353,3.339808759942732
-0.0002512799519807923,-0.02421162197727424,3.339808759942722
-0.0002512399519807923,-0.02794905406381843,3.32858195441314
-0.0002511999519807923,-0.01673675780416545,3.324839685903279
-0.0002511599519807923,-0.02047418989072154,3.328581954413142
-0.0002511199519807923,-0.02421162197726914,3.328581954413142
-0.0002510799519807923,-0.02047418989071984,3.328581954413142
-0.0002510399519807923,-0.01673675780416715,3.332324222923001
-0.0002509999519807923,-0.02047418989071814,3.321097417393415
-0.0002509599519807923,-0.02421162197726744,3.332324222922995
-0.0002509199519807923,-0.02047418989071984,3.321097417393422
-0.0002508799519807923,-0.02421162197727084,3.336066491432869
-0.0002508399519807923,-0.02047418989071814,3.328581954413142
-0.0002507999519807923,-0.02047418989071814,3.328581954413142
-0.0002507599519807923,-0.02047418989071814,3.328581954413142
-0.0002507199519807923,-0.02047418989071304,3.324839685903282
-0.0002506799519807923,-0.009261893631060059,3.332324222923006
-0.0002506399519807923,-0.02047418989072494,3.328581954413135
-0.0002505999519807923,-0.02794905406381843,3.32109741739342
-0.0002505599519807923,-0.01673675780416545,3.332324222923006
-0.0002505199519807923,-0.01673675780416545,3.324839685903281
-0.0002504799519807923,-0.01673675780416545,3.328581954413142
-0.0002504399519807923,-0.02047418989071814,3.328581954413128
-0.0002503999519807923,-0.02047418989071644,3.313612880373695
-0.0002503599519807923,-0.01673675780416545,3.328581954413142
-0.0002503199519807923,-0.01673675780416885,3.321097417393419
-0.0002502799519807923,-0.02047418989071474,3.324839685903279
-0.0002502399519807923,-0.01299932571761615,3.324839685903279
-0.0002501999519807923,-0.01673675780416885,3.332324222923001
-0.0002501599519807923,-0.02421162197727084,3.321097417393415
-0.0002501199519807923,-0.02421162197727763,3.317355148883552
-0.0002500799519807923,-0.03168648615037453,3.317355148883554
-0.0002500399519807923,-0.02794905406382353,3.321097417393415
-0.0002499999519807923,-0.02421162197727084,3.32109741739342
-0.0002499599519807923,-0.02421162197727084,3.332324222923006
-0.0002499199519807923,-0.02794905406382353,3.328581954413146
-0.0002498799519807923,-0.02794905406382353,3.332324222923004
-0.0002498399519807923,-0.02794905406382353,3.328581954413142
-0.0002497999519807923,-0.01673675780417224,3.324839685903275
-0.0002497599519807923,-0.02421162197726914,3.321097417393417
-0.0002497199519807923,-0.02047418989071984,3.324839685903277
-0.0002496799519807923,-0.01673675780417055,3.324839685903281
-0.0002496399519807923,-0.02794905406382353,3.328581954413142
-0.0002495999519807923,-0.02421162197727424,3.324839685903279
-0.0002495599519807923,-0.02794905406382183,3.324839685903279
-0.0002495199519807923,-0.02421162197727084,3.324839685903279
-0.0002494799519807923,-0.02794905406382693,3.324839685903286
-0.0002494399519807923,-0.03168648615037623,3.332324222923006
-0.0002493999519807923,-0.03168648615037623,3.328581954413144
-0.0002493599519807923,-0.02794905406381843,3.336066491432867
-0.0002493199519807923,-0.01673675780416545,3.332324222923006
-0.0002492799519807923,-0.01299932571762295,3.324839685903289
-0.0002492399519807923,-0.02421162197727084,3.336066491432869
-0.0002491999519807923,-0.02421162197727084,3.336066491432869
-0.0002491599519807923,-0.02421162197726574,3.321097417393422
-0.0002491199519807923,-0.01299932571761275,3.336066491432869
-0.0002490799519807923,-0.02421162197727424,3.336066491432863
-0.0002490399519807923,-0.02794905406381843,3.328581954413149
-0.0002489999519807923,-0.01673675780416545,3.343551028452596
-0.0002489599519807923,-0.02794905406381333,3.324839685903286
-0.0002489199519807923,-0.01673675780416885,3.332324222923007
-0.0002488799519807923,-0.02421162197726744,3.336066491432867
-0.0002488399519807923,-0.02421162197726914,3.332324222923004
-0.0002487999519807923,-0.02047418989071814,3.328581954413142
-0.0002487599519807923,-0.02421162197727424,3.324839685903279
-0.0002487199519807923,-0.02794905406381843,3.324839685903281
-0.0002486799519807923,-0.01673675780416545,3.328581954413142
-0.0002486399519807923,-0.02047418989072834,3.324839685903293
-0.0002485999519807923,-0.03168648615037623,3.339808759942732
-0.0002485599519807923,-0.02794905406382013,3.321097417393419
-0.0002485199519807923,-0.02421162197726744,3.324839685903282
-0.0002484799519807923,-0.01673675780416545,3.332324222923006
-0.0002484399519807923,-0.02421162197727084,3.324839685903286
-0.0002483999519807923,-0.02421162197727254,3.332324222923006
-0.0002483599519807923,-0.02794905406382183,3.332324222923006
-0.0002483199519807923,-0.02421162197726914,3.32858195441314
-0.0002482799519807923,-0.02047418989071814,3.324839685903279
-0.0002482399519807923,-0.02421162197727424,3.328581954413135
-0.0002481999519807923,-0.02794905406382183,3.32109741739342
-0.0002481599519807923,-0.02421162197727084,3.332324222923006
-0.0002481199519807923,-0.02794905406381673,3.321097417393422
-0.0002480799519807923,-0.02047418989071814,3.328581954413142
-0.0002480399519807923,-0.01299932571761615,3.321097417393419
-0.0002479999519807923,-0.03168648615037283,3.328581954413139
-0.0002479599519807923,-0.02421162197727084,3.321097417393415
-0.0002479199519807923,-0.02047418989072494,3.324839685903279
-0.0002478799519807923,-0.02794905406382353,3.324839685903277
-0.0002478399519807923,-0.02794905406382353,3.321097417393415
-0.0002477999519807923,-0.02421162197726914,3.313612880373692
-0.0002477599519807923,-0.02047418989071814,3.321097417393415
-0.0002477199519807923,-0.02047418989071474,3.324839685903275
-0.0002476799519807923,-0.01673675780416545,3.321097417393415
-0.0002476399519807923,-0.01673675780416545,3.321097417393415
-0.0002475999519807923,-0.02421162197726744,3.313612880373699
-0.0002475599519807923,-0.02047418989071644,3.324839685903282
-0.0002475199519807923,-0.01673675780416715,3.332324222923002
-0.0002474799519807923,-0.02794905406382183,3.321097417393419
-0.0002474399519807923,-0.02421162197727084,3.328581954413142
-0.0002473999519807923,-0.01673675780417224,3.328581954413135
-0.0002473599519807923,-0.02421162197727084,3.321097417393417
-0.0002473199519807923,-0.02421162197727084,3.324839685903279
-0.0002472799519807923,-0.02047418989072154,3.324839685903279
-0.0002472399519807923,-0.02421162197727084,3.324839685903279
-0.0002471999519807923,-0.02421162197727424,3.332324222923009
-0.0002471599519807923,-0.02794905406381503,3.336066491432864
-0.0002471199519807923,-0.009261893631060059,3.324839685903279
-0.0002470799519807923,-0.02421162197726404,3.321097417393412
-0.0002470399519807923,-0.01673675780416885,3.317355148883552
-0.0002469999519807923,-0.02421162197727084,3.317355148883552
-0.0002469599519807923,-0.01673675780416715,3.317355148883555
-0.0002469199519807923,-0.02047418989071814,3.324839685903279
-0.0002468799519807923,-0.01673675780417224,3.328581954413146
-0.0002468399519807923,-0.02421162197727254,3.332324222923004
-0.0002467999519807923,-0.02794905406382353,3.328581954413142
-0.0002467599519807923,-0.01673675780417564,3.336066491432855
-0.0002467199519807923,-0.02794905406382353,3.321097417393415
-0.0002466799519807923,-0.02421162197727254,3.328581954413139
-0.0002466399519807923,-0.02421162197727084,3.321097417393412
-0.0002465999519807923,-0.02421162197727084,3.313612880373689
-0.0002465599519807923,-0.01299932571762295,3.324839685903275
-0.0002465199519807923,-0.02421162197727084,3.321097417393419
-0.0002464799519807923,-0.02421162197727084,3.328581954413142
-0.0002464399519807923,-0.02047418989071474,3.321097417393417
-0.0002463999519807923,-0.01299932571761275,3.324839685903279
-0.0002463599519807923,-0.01673675780417224,3.317355148883566
-0.0002463199519807923,-0.02421162197727084,3.332324222923006
-0.0002462799519807923,-0.02421162197727084,3.332324222923006
-0.0002462399519807923,-0.02047418989072154,3.324839685903286
-0.0002461999519807923,-0.02421162197726914,3.332324222923002
-0.0002461599519807923,-0.02047418989071984,3.324839685903282
-0.0002461199519807923,-0.02421162197726914,3.328581954413142
-0.0002460799519807923,-0.02047418989071814,3.328581954413142
-0.0002460399519807923,-0.02421162197726744,3.321097417393419
-0.0002459999519807923,-0.02047418989071814,3.324839685903281
-0.0002459599519807923,-0.02047418989071814,3.328581954413142
-0.0002459199519807923,-0.01673675780416885,3.321097417393415
-0.0002458799519807923,-0.02047418989071814,3.321097417393415
-0.0002458399519807923,-0.01673675780416715,3.332324222923001
-0.0002457999519807923,-0.03542391823692552,3.321097417393415
-0.0002457599519807923,-0.02794905406382353,3.321097417393415
-0.0002457199519807923,-0.01673675780417224,3.332324222923006
-0.0002456799519807923,-0.02421162197726404,3.332324222923002
-0.0002456399519807923,-0.009261893631060059,3.324839685903279
-0.0002455999519807923,-0.01673675780417055,3.328581954413144
-0.0002455599519807923,-0.02794905406382353,3.332324222923006
-0.0002455199519807923,-0.02047418989071135,3.324839685903289
-0.0002454799519807923,-0.01299932571761785,3.336066491432871
-0.0002454399519807923,-0.02421162197727084,3.339808759942732
-0.0002453999519807923,-0.02047418989071135,3.324839685903282
-0.0002453599519807923,-0.01299932571761785,3.328581954413144
-0.0002453199519807923,-0.02421162197726574,3.332324222923004
-0.0002452799519807923,-0.02794905406382353,3.324839685903279
-0.0002452399519807923,-0.02794905406382353,3.324839685903279
-0.0002451999519807923,-0.02421162197727424,3.324839685903293
-0.0002451599519807923,-0.02794905406382353,3.339808759942726
-0.0002451199519807923,-0.02794905406382353,3.324839685903279
-0.0002450799519807923,-0.02047418989072154,3.336066491432869
-0.0002450399519807923,-0.02794905406382353,3.336066491432869
-0.0002449999519807923,-0.03168648615036943,3.332324222923006
-0.0002449599519807923,-0.02421162197726744,3.332324222923004
-0.0002449199519807923,-0.01673675780416545,3.328581954413142
-0.0002448799519807923,-0.02794905406382693,3.324839685903286
-0.0002448399519807923,-0.03168648615037283,3.332324222923004
-0.0002447999519807923,-0.02421162197727424,3.328581954413144
-0.0002447599519807923,-0.02421162197727084,3.324839685903277
-0.0002447199519807923,-0.02421162197727084,3.321097417393415
-0.0002446799519807923,-0.03168648615037623,3.332324222922995
-0.0002446399519807923,-0.03168648615037793,3.321097417393419
-0.0002445999519807923,-0.03542391823692892,3.328581954413142
-0.0002445599519807923,-0.02421162197727424,3.321097417393415
-0.0002445199519807923,-0.02794905406382353,3.321097417393415
-0.0002444799519807923,-0.03168648615037453,3.328581954413139
-0.0002444399519807923,-0.03168648615037453,3.328581954413142
-0.0002443999519807923,-0.02794905406382353,3.328581954413142
-0.0002443599519807923,-0.03916135032346802,3.324839685903279
-0.0002443199519807923,-0.02421162197727594,3.324839685903281
-0.0002442799519807923,-0.03542391823692892,3.328581954413142
-0.0002442399519807923,-0.03168648615037963,3.321097417393417
-0.0002441999519807923,-0.03916135032348161,3.324839685903279
-0.0002441599519807923,-0.02421162197728103,3.332324222923002
-0.0002441199519807923,-0.03542391823693062,3.328581954413142
-0.0002440799519807923,-0.03916135032348161,3.328581954413142
-0.0002440399519807923,-0.04289878241002411,3.324839685903279
-0.0002439999519807923,-0.03168648615037623,3.324839685903281
-0.0002439599519807923,-0.03168648615037623,3.32858195441314
-0.0002439199519807923,-0.03916135032347991,3.324839685903282
-0.0002438799519807923,-0.03542391823692892,3.332324222923006
-0.0002438399519807923,-0.03916135032347481,3.321097417393426
-0.0002437999519807923,-0.03168648615037963,3.332324222922999
-0.0002437599519807923,-0.03916135032348161,3.317355148883552
-0.0002437199519807923,-0.02421162197728443,3.328581954413146
-0.0002436799519807923,-0.03916135032348161,3.332324222923006
-0.0002436399519807923,-0.03168648615038303,3.328581954413142
-0.0002435999519807923,-0.03916135032347821,3.328581954413137
-0.0002435599519807923,-0.03168648615037623,3.317355148883552
-0.0002435199519807923,-0.03542391823692552,3.324839685903282
-0.0002434799519807923,-0.03168648615037963,3.32858195441314
-0.0002434399519807923,-0.03916135032348161,3.324839685903279
-0.0002433999519807923,-0.03542391823692892,3.321097417393417
-0.0002433599519807923,-0.03542391823692892,3.324839685903279
-0.0002433199519807923,-0.03916135032347821,3.324839685903279
-0.0002432799519807923,-0.03542391823692722,3.324839685903279
-0.0002432399519807923,-0.03168648615037623,3.324839685903279
-0.0002431999519807923,-0.03542391823692212,3.332324222922999
-0.0002431599519807923,-0.02794905406382353,3.324839685903279
-0.0002431199519807923,-0.02794905406382353,3.32858195441314
-0.0002430799519807923,-0.02794905406382523,3.332324222923006
-0.0002430399519807923,-0.03168648615037623,3.332324222923006
-0.0002429999519807923,-0.01673675780417904,3.324839685903279
-0.0002429599519807923,-0.03168648615037453,3.324839685903279
-0.0002429199519807923,-0.02794905406382353,3.324839685903279
-0.0002428799519807923,-0.02047418989071984,3.324839685903275
-0.0002428399519807923,-0.02421162197727084,3.317355148883552
-0.0002427999519807923,-0.02794905406382013,3.321097417393412
-0.0002427599519807923,-0.02421162197727254,3.317355148883555
-0.0002427199519807923,-0.02794905406382353,3.324839685903279
-0.0002426799519807923,-0.03168648615037963,3.324839685903269
-0.0002426399519807923,-0.03542391823692552,3.313612880373694
-0.0002425999519807923,-0.02794905406382693,3.324839685903274
-0.0002425599519807923,-0.02421162197727424,3.32858195441314
-0.0002425199519807923,-0.03168648615037623,3.324839685903279
-0.0002424799519807923,-0.03168648615037283,3.324839685903269
-0.0002424399519807923,-0.02794905406382183,3.313612880373695
-0.0002423999519807923,-0.02421162197727084,3.328581954413142
-0.0002423599519807923,-0.02794905406382353,3.321097417393412
-0.0002423199519807923,-0.02794905406382353,3.317355148883552
-0.0002422799519807923,-0.02794905406382353,3.31361288037369
-0.0002422399519807923,-0.03542391823692212,3.321097417393415
-0.0002421999519807923,-0.02047418989071814,3.321097417393415
-0.0002421599519807923,-0.03542391823692212,3.321097417393419
-0.0002421199519807923,-0.02794905406382523,3.324839685903279
-0.0002420799519807923,-0.03168648615037623,3.324839685903279
-0.0002420399519807923,-0.03168648615037453,3.324839685903279
-0.0002419999519807923,-0.02794905406382353,3.324839685903279
-0.0002419599519807923,-0.03542391823692212,3.317355148883558
-0.0002419199519807923,-0.02794905406382353,3.324839685903279
-0.0002418799519807923,-0.02794905406382353,3.324839685903279
-0.0002418399519807923,-0.02421162197728783,3.321097417393422
-0.0002417999519807923,-0.04289878241002751,3.328581954413142
-0.0002417599519807923,-0.02794905406383033,3.328581954413142
-0.0002417199519807923,-0.02047418989072664,3.328581954413139
-0.0002416799519807923,-0.03916135032348161,3.321097417393415
-0.0002416399519807923,-0.02421162197727084,3.328581954413142
-0.0002415999519807923,-0.02421162197727424,3.328581954413144
-0.0002415599519807923,-0.03168648615037623,3.332324222923006
-0.0002415199519807923,-0.03168648615037793,3.328581954413144
-0.0002414799519807923,-0.03542391823692892,3.332324222923006
-0.0002414399519807923,-0.02794905406382353,3.324839685903279
-0.0002413999519807923,-0.02794905406382693,3.324839685903282
-0.0002413599519807923,-0.03542391823692892,3.332324222923006
