results/L_OUTPUT_REWIRED.csv

#Digilent WaveForms Oscilloscope Acquisition
#Device Name: Discovery2NI
#Serial Number: SN:210321ABE20B
#Date Time: 2021-12-18 19:34:19.647
#Sample rate: 3.44828e+06Hz
#Samples: 8192
#Trigger: Source: Channel 1 Type: Pulse Condition: Positive Level: -5.88 mV LCondition: Less Length: 500 ms Hyst.: 100 mV HoldOff: 100 ns
#Channel 1: Range: 50 mV/div Offset: 1.2 div Attenuation: 1 X
#Channel 2: Range: 200 mV/div Offset: -2.16 V Attenuation: 1 X

Time (s),Channel 1 (V),Channel 2 (V)
-0.000469162505800464,-0.00359913086318951,1.725752729965397
-0.000468872505800464,-0.003258818819657414,1.729156081236155
-0.000468582505800464,-0.005300691080856806,1.731198091998612
-0.0004682925058004642,-0.008023187429119772,1.735282113523519
-0.0004680025058004641,-0.008363499472654036,1.735962783777672
-0.0004677125058004641,-0.007342563342055116,1.732219097379839
-0.0004674225058004641,-0.00462006699378921,1.729156081236155
-0.0004671325058004641,-0.003258818819656485,1.727794740727851
-0.0004668425058004641,-0.003258818819656485,1.728475410982003
-0.0004665525058004641,-0.004960379037322389,1.73119809199861
-0.0004662625058004641,-0.008023187429121011,1.734601443269369
-0.0004659725058004641,-0.00836349947265419,1.734941778396445
-0.000465682505800464,-0.008023187429121011,1.734261108142293
-0.000465392505800464,-0.006661939254988286,1.730177086617382
-0.000465102505800464,0.003547422051007124,2.072554224455733
-0.000464812505800464,-0.001897570645523761,1.694101563147337
-0.000464522505800464,-0.004279754950256023,1.726433400219547
-0.000464232505800464,-0.003599130863190129,1.720988038186337
-0.000463942505800464,-0.004620066993789519,1.729156081236156
-0.000463652505800464,-0.005300691080856806,1.732219097379838
-0.0004633625058004642,-0.008023187429119772,1.732559432506913
-0.0004630725058004641,-0.008363499472654036,1.735622448650595
-0.0004627825058004641,-0.00666193925498906,1.731198091998612
-0.0004624925058004641,-0.003939442906724083,1.728135075854928
-0.0004622025058004641,-0.003939442906722844,1.727794740727851
-0.0004619125058004641,-0.003939442906722844,1.729156081236155
-0.0004616225058004641,-0.005300691080855569,1.731538427125686
-0.0004613325058004641,-0.00836349947265419,1.735962783777672
-0.0004610425058004641,-0.008023187429121011,1.735282113523521
-0.000460752505800464,-0.008023187429121011,1.734261108142293
-0.000460462505800464,-0.005981315167921927,1.730857756871534
-0.000460172505800464,-0.003599130863189665,1.728475410982003
-0.000459882505800464,-0.003258818819656485,1.728475410982003
-0.000459592505800464,-0.003599130863189665,1.729836751490306
-0.000459302505800464,0.006610230442800793,2.038520711748
-0.000459012505800464,-0.004279754950257416,1.722689713821718
-0.000458722505800464,-0.007342563342054806,1.733920773015215
-0.0004584325058004639,-0.007682875385588605,1.72881574610908
-0.0004581425058004642,-0.009384435603252961,1.731198091998609
-0.0004578525058004641,-0.007682875385588605,1.732219097379837
-0.0004575625058004641,-0.004620066993790603,1.727114070473701
-0.0004572725058004641,-0.003599130863189665,1.727114070473699
-0.0004569825058004641,-0.003939442906722844,1.72949641636323
-0.0004566925058004641,-0.005300691080855569,1.731878762252762
-0.0004564025058004641,-0.008023187429121011,1.734941778396445
-0.0004561125058004641,-0.009044123559720556,1.734941778396445
-0.0004558225058004641,-0.00836349947265419,1.734261108142293
-0.000455532505800464,-0.005981315167921927,1.731538427125686
-0.000455242505800464,-0.003939442906722844,1.728815746109079
-0.000454952505800464,-0.003599130863189665,1.728815746109079
-0.000454662505800464,-0.004279754950256023,1.729156081236155
-0.000454372505800464,-0.005981315167922701,1.732559432506914
-0.000454082505800464,-0.007682875385588141,1.733920773015218
-0.000453792505800464,-0.008363499472654036,1.73528211352352
-0.000453502505800464,-0.008023187429119928,1.733240102761063
-0.0004532125058004642,-0.005641003124389831,1.728815746109081
-0.0004529225058004641,-0.003939442906723618,1.728135075854927
-0.0004526325058004641,-0.003939442906722844,1.728135075854927
-0.0004523425058004641,0.004908670225139841,2.037840041493992
-0.0004520525058004641,-0.003939442906722844,1.729836751490306
-0.0004517625058004641,-0.002918506776123306,1.726093065092472
-0.0004514725058004641,-0.005981315167921927,1.727454405600775
-0.0004511825058004641,-0.00836349947265419,1.734601443269369
-0.0004508925058004641,-0.008023187429121011,1.733580437888141
-0.000450602505800464,-0.007002251298521472,1.730857756871534
-0.000450312505800464,-0.005641003124388748,1.728815746109079
-0.000450022505800464,-0.003258818819656485,1.728815746109079
-0.000449732505800464,-0.003599130863189665,1.728475410982003
-0.000449442505800464,-0.004960379037322389,1.730517421744458
-0.000449152505800464,-0.007342563342055116,1.734601443269369
-0.000448862505800464,-0.008363499472654344,1.735622448650596
-0.000448572505800464,-0.008703811516186596,1.735622448650595
-0.0004482825058004642,-0.007002251298522246,1.732559432506915
-0.0004479925058004642,-0.004620066993790293,1.729156081236156
-0.0004477025058004641,-0.003939442906723154,1.728135075854927
-0.0004474125058004641,-0.003939442906722844,1.7271140704737
-0.0004471225058004641,-0.005641003124388748,1.730857756871534
-0.0004468325058004641,-0.007682875385587831,1.733580437888141
-0.0004465425058004641,-0.00836349947265419,1.734941778396445
-0.0004462525058004641,-0.008023187429121011,1.733920773015217
-0.0004459625058004641,-0.006321627211455107,1.730857756871534
-0.0004456725058004641,-0.00462006699378921,1.729156081236155
-0.000445382505800464,-0.003599130863189665,1.727794740727851
-0.000445092505800464,-0.003599130863189665,1.728135075854927
-0.000444802505800464,-0.005300691080855569,1.731538427125686
-0.000444512505800464,-0.008023187429121011,1.733920773015217
-0.000444222505800464,-0.008363499472651715,1.734601443269526
-0.000443932505800464,-0.00291850677612083,2.081402937759526
-0.000443642505800464,0.002526485920402626,1.684912514716309
-0.000443352505800464,-0.008363499472653416,1.730857756871531
-0.0004430625058004642,-0.00666193925498906,1.723370384075868
-0.0004427725058004641,-0.005300691080856188,1.727794740727849
-0.0004424825058004641,-0.003939442906723463,1.725752729965397
-0.0004421925058004641,-0.00462006699378921,1.726773735346623
-0.0004419025058004641,-0.007342563342054652,1.732559432506914
-0.0004416125058004641,-0.008703811516187369,1.733580437888141
-0.0004413225058004641,-0.009044123559720556,1.734941778396445
-0.0004410325058004641,-0.007682875385587831,1.732899767633989
-0.0004407425058004641,-0.006321627211455107,1.729156081236155
-0.000440452505800464,-0.00462006699378921,1.727454405600775
-0.000440162505800464,-0.004279754950256023,1.727114070473699
-0.000439872505800464,-0.00462006699378921,1.729836751490306
-0.000439582505800464,-0.007002251298521472,1.733920773015217
-0.000439292505800464,-0.008703811516187369,1.733920773015217
-0.000439002505800464,-0.00870381151618675,1.734941778396443
-0.000438712505800464,-0.007342563342053414,1.731538427125684
-0.000438422505800464,-0.0046200669937889,1.728815746109078
-0.0004381325058004642,-0.003939442906723154,1.728135075854927
-0.0004378425058004641,-0.004279754950255869,1.728475410982002
-0.0004375525058004641,-0.005300691080855104,1.731538427125684
-0.0004372625058004641,-0.007682875385587831,1.734601443269369
-0.0004369725058004641,-0.008703811516187369,1.734941778396445
-0.0004366825058004641,-0.00836349947265419,1.734601443269369
-0.0004363925058004641,-0.006321627211455107,1.730517421744458
-0.0004361025058004641,0.01205522313933664,2.032054344333702
-0.0004358125058004641,-0.01108599582091964,1.734601443269369
-0.000435522505800464,-0.002578194732590126,1.72371071920294
-0.000435232505800464,-0.003939442906722844,1.722689713821713
-0.000434942505800464,-0.004279754950256023,1.728475410982003
-0.000434652505800464,-0.005981315167921927,1.730517421744458
-0.000434362505800464,-0.008703811516187369,1.732899767633989
-0.000434072505800464,-0.00870381151618675,1.735282113523519
-0.000433782505800464,-0.007342563342053568,1.732899767633987
-0.000433492505800464,-0.004960379037321615,1.727794740727851
-0.0004332025058004642,-0.003258818819657259,1.727794740727851
-0.0004329125058004642,-0.00359913086318951,1.728475410982002
-0.0004326225058004641,-0.00564100312438782,1.731538427125684
-0.0004323325058004641,-0.007682875385586903,1.734941778396443
-0.0004320425058004641,-0.00836349947265419,1.735622448650596
-0.0004317525058004641,-0.00836349947265419,1.734941778396445
-0.0004314625058004641,-0.005981315167921927,1.730177086617382
-0.0004311725058004641,-0.003939442906722844,1.728475410982003
-0.0004308825058004641,0.008992414747538008,2.06370551115176
-0.0004305925058004641,-0.009724747646786915,1.699206590053476
-0.000430302505800464,-0.005641003124388748,1.730177086617382
-0.000430012505800464,-0.003599130863189665,1.726093065092472
-0.000429722505800464,-0.007002251298521472,1.729156081236155
-0.000429432505800464,-0.009044123559720556,1.735622448650596
-0.000429142505800464,-0.008023187429120083,1.73358043788814
-0.000428852505800464,-0.005981315167921154,1.730517421744457
-0.000428562505800464,-0.004279754950255559,1.728475410982002
-0.000428272505800464,-0.003258818819656485,1.727454405600775
-0.0004279825058004642,-0.003258818819656485,1.728475410982002
-0.0004276925058004641,-0.005641003124387665,1.732219097379836
-0.0004274025058004641,-0.007682875385586903,1.733920773015216
-0.0004271125058004641,-0.00836349947265419,1.734941778396445
-0.0004268225058004641,-0.008023187429121011,1.732559432506914
-0.0004265325058004641,-0.005641003124388748,1.729156081236155
-0.0004262425058004641,-0.003599130863189665,1.727794740727851
-0.0004259525058004641,-0.003599130863189665,1.727794740727851
-0.0004256625058004641,-0.007342563342054652,2.070512213693278
-0.000425372505800464,0.005248982268673028,1.693420892893186
-0.000425082505800464,-0.003939442906722844,1.730517421744458
-0.000424792505800464,-0.006661939254988286,1.728475410982003
-0.000424502505800464,-0.009384435603253735,1.732899767633989
-0.000424212505800464,-0.009384435603253735,1.735282113523521
-0.000423922505800464,-0.007002251298520543,1.729836751490306
-0.000423632505800464,-0.004960379037321925,1.728475410982002
-0.000423342505800464,-0.00393944290672269,1.727454405600776
-0.0004230525058004642,-0.003599130863189819,1.728815746109078
-0.0004227625058004642,-0.005300691080854795,1.73187876225276
-0.0004224725058004641,-0.007342563342053724,1.734601443269367
-0.0004221825058004641,-0.008363499472653725,1.734941778396444
-0.0004218925058004641,-0.007682875385587831,1.732899767633989
-0.0004216025058004641,-0.005641003124388748,1.729156081236155
-0.0004213125058004641,-0.002918506776123306,1.727794740727851
-0.0004210225058004641,-0.003599130863189665,1.728135075854927
-0.0004207325058004641,-0.00462006699378921,1.730857756871534
-0.0004204425058004641,-0.007002251298521472,1.733920773015217
-0.000420152505800464,-0.008703811516187369,1.734601443269369
-0.000419862505800464,-0.00836349947265419,1.734941778396445
-0.000419572505800464,-0.0008766345149242225,1.783609701568298
-0.000419282505800464,0.005589294312206214,1.988151112940911
-0.000418992505800464,-0.008703811516186131,1.72234937869464
-0.000418702505800464,-0.005981315167920534,1.729156081236153
-0.000418412505800464,-0.00291850677612377,1.726093065092471
-0.000418122505800464,-0.003939442906723773,1.724391389457095
-0.0004178325058004642,-0.005981315167920999,1.730857756871531
-0.0004175425058004641,-0.008023187429120083,1.733920773015216
-0.0004172525058004641,-0.009384435603253116,1.733920773015217
-0.0004169625058004641,-0.008703811516187369,1.734261108142293
-0.0004166725058004641,-0.005981315167921927,1.730517421744458
-0.0004163825058004641,-0.003939442906722844,1.728135075854927
-0.0004160925058004641,-0.003258818819656485,1.728475410982003
-0.0004158025058004641,-0.003599130863189665,1.729156081236155
-0.0004155125058004641,-0.005981315167921927,1.733240102761065
-0.000415222505800464,-0.008023187429121011,1.734941778396445
-0.000414932505800464,-0.00836349947265419,1.734941778396445
-0.000414642505800464,-0.007002251298521472,1.732559432506914
-0.000414352505800464,-0.005300691080855569,1.728815746109079
-0.000414062505800464,-0.002918506776123306,1.727794740727851
-0.000413772505800464,-0.003599130863190283,1.728135075854928
-0.000413482505800464,-0.004960379037319758,1.731198091998746
-0.000413192505800464,0.0008249257027415268,2.030352668698187
-0.0004129025058004642,0.0004846136592086568,1.732899767634125
-0.0004126125058004641,-0.006321627211452012,1.729496416363232
-0.0004123225058004641,-0.009044123559719317,1.730177086617382
-0.0004120325058004641,-0.009044123559720556,1.734601443269369
-0.0004117425058004641,-0.005981315167921927,1.728475410982003
-0.0004114525058004641,-0.003939442906722844,1.726773735346623
-0.0004111625058004641,-0.003258818819656485,1.727794740727851
-0.0004108725058004641,-0.003258818819656485,1.729836751490306
-0.0004105825058004641,-0.005981315167921927,1.733240102761065
-0.000410292505800464,-0.007682875385587831,1.735962783777672
-0.000410002505800464,-0.00836349947265419,1.734941778396445
-0.000409712505800464,-0.007342563342054652,1.733240102761065
-0.000409422505800464,-0.00462006699378921,1.730177086617382
-0.000409132505800464,-0.003258818819656485,1.729156081236155
-0.000408842505800464,-0.003599130863189974,1.729156081236155
-0.000408552505800464,-0.004279754950257107,1.731198091998611
-0.000408262505800464,-0.00666193925498906,1.733580437888142
-0.0004079725058004642,-0.008363499472653416,1.735622448650596
-0.0004076825058004642,-0.00836349947265419,1.736643454031824
-0.0004073925058004641,-0.00666193925498906,1.73221909737984
-0.0004071025058004641,-0.004620066993790138,1.729156081236156
-0.0004068125058004641,-0.003258818819656485,1.728135075854927
-0.0004065225058004641,0.004568358181606669,2.059621489626849
-0.0004062325058004641,-0.003599130863189665,1.709416643865753
-0.0004059425058004641,-0.002578194732590126,1.725072059711244
-0.0004056525058004641,-0.005300691080855569,1.724051054330016
-0.0004053625058004641,-0.00836349947265419,1.734261108142293
-0.000405072505800464,-0.007342563342054652,1.732559432506914
-0.000404782505800464,-0.008023187429121011,1.732559432506914
-0.000404492505800464,-0.006321627211455107,1.730177086617382
-0.000404202505800464,-0.003599130863189665,1.727114070473699
-0.000403912505800464,-0.003258818819656795,1.726773735346625
-0.000403622505800464,-0.003939442906723927,1.729836751490308
-0.000403332505800464,-0.006321627211456036,1.733920773015218
-0.000403042505800464,-0.008363499472654344,1.734941778396445
-0.0004027525058004642,-0.008703811516187215,1.734941778396445
-0.0004024625058004641,-0.007002251298522246,1.733240102761066
-0.0004021725058004641,-0.005300691080856342,1.729156081236156
-0.0004018825058004641,-0.003599130863189665,1.728135075854927
-0.0004015925058004641,-0.003599130863189665,1.728135075854927
-0.0004013025058004641,-0.005300691080855569,1.73119809199861
-0.0004010125058004641,-0.007682875385587831,1.735622448650596
-0.0004007225058004641,-0.008703811516187369,1.735622448650596
-0.0004004325058004641,-0.008703811516187369,1.735622448650596
-0.000400142505800464,-0.007682875385587831,1.731878762252762
-0.000399852505800464,-0.00462006699378921,1.72949641636323
-0.000399562505800464,0.009332726791071194,2.039201382002295
-0.000399272505800464,-0.008023187429121011,1.722349378694637
-0.000398982505800464,-0.00462006699378921,1.729156081236155
-0.000398692505800464,-0.003599130863190903,1.723030048948792
-0.000398402505800464,-0.00632162721145588,1.729836751490309
-0.000398112505800464,-0.008023187429121165,1.73528211352352
-0.0003978225058004642,-0.008363499472654036,1.734261108142293
-0.0003975325058004641,-0.00836349947265419,1.733580437888141
-0.0003972425058004641,-0.005981315167923011,1.730517421744459
-0.0003969525058004641,-0.004279754950256797,1.728475410982004
-0.0003966625058004641,-0.003599130863189665,1.727794740727851
-0.0003963725058004641,-0.003939442906722844,1.728815746109079
-0.0003960825058004641,-0.006321627211455107,1.733920773015217
-0.0003957925058004641,-0.008703811516187369,1.734941778396445
-0.0003955025058004641,-0.009044123559720556,1.734941778396445
-0.000395212505800464,-0.00836349947265419,1.733240102761065
-0.000394922505800464,-0.005641003124388748,1.730177086617382
-0.000394632505800464,-0.003599130863189665,1.728135075854927
-0.000394342505800464,-0.003599130863189665,1.728135075854927
-0.000394052505800464,-0.004279754950256023,1.730517421744458
-0.000393762505800464,-0.007342563342055271,1.734601443269369
-0.000393472505800464,-0.008703811516187369,1.734941778396445
-0.000393182505800464,-0.008703811516186596,1.735282113523519
-0.0003928925058004642,-0.007002251298522246,1.732559432506915
-0.0003926025058004642,-0.004620066993790293,1.729496416363232
-0.0003923125058004641,0.000484613659206181,1.848273375712664
-0.0003920225058004641,0.0001443016156754775,1.924168109050608
-0.0003917325058004641,-0.002578194732590126,1.718946027423878
-0.0003914425058004641,-0.004960379037322389,1.727794740727851
-0.0003911525058004641,-0.005300691080855569,1.730177086617382
-0.0003908625058004641,-0.00836349947265419,1.730857756871534
-0.0003905725058004641,-0.01006505969032009,1.734601443269369
-0.0003902825058004641,-0.008703811516187369,1.733580437888141
-0.000389992505800464,-0.006661939254988286,1.728815746109079
-0.000389702505800464,-0.004279754950256023,1.728815746109079
-0.000389412505800464,-0.003939442906722844,1.728135075854927
-0.000389122505800464,-0.004960379037322389,1.729836751490306
-0.000388832505800464,-0.006661939254988905,1.733920773015217
-0.000388542505800464,-0.008023187429121165,1.734261108142293
-0.000388252505800464,-0.008363499472653725,1.734261108142292
-0.000387962505800464,-0.007342563342053414,1.732219097379836
-0.0003876725058004642,-0.004620066993790448,1.728135075854929
-0.0003873825058004641,-0.003939442906723154,1.727454405600775
-0.0003870925058004641,-0.003599130863189819,1.728135075854927
-0.0003868025058004641,-0.005300691080855569,1.731538427125686
-0.0003865125058004641,-0.00836349947265419,1.734601443269369
-0.0003862225058004641,-0.008703811516187369,1.734601443269369
-0.0003859325058004641,-0.008703811516187369,1.734941778396445
-0.0003856425058004641,0.01001335087813755,2.028991328190019
-0.0003853525058004641,-0.008703811516187369,1.728135075854927
-0.000385062505800464,-0.00836349947265419,1.732899767633989
-0.000384772505800464,-0.003939442906722844,1.724051054330016
-0.000384482505800464,-0.00462006699378921,1.724731724584168
-0.000384192505800464,-0.00462006699378921,1.728475410982003
-0.000383902505800464,-0.005641003124388748,1.731538427125686
-0.000383612505800464,-0.008363499472654655,1.734941778396445
-0.000383322505800464,-0.009384435603253116,1.736303118904747
-0.000383032505800464,-0.008023187429119928,1.733240102761064
-0.0003827425058004642,-0.005641003124389831,1.730177086617384
-0.0003824525058004642,-0.003939442906723618,1.729156081236155
-0.0003821625058004641,-0.003599130863189819,1.728475410982003
-0.0003818725058004641,-0.004620066993788746,1.731198091998609
-0.0003815825058004641,-0.006321627211455107,1.734601443269369
-0.0003812925058004641,-0.007682875385587831,1.734601443269369
-0.0003810025058004641,-0.008023187429121011,1.735282113523521
-0.0003807125058004641,-0.006661939254988286,1.731538427125686
-0.0003804225058004641,-0.004279754950256023,1.728815746109079
-0.0003801325058004641,-0.003599130863189665,1.727794740727851
-0.000379842505800464,-0.004279754950256023,1.72949641636323
-0.000379552505800464,-0.005641003124388748,1.731878762252762
-0.000379262505800464,-0.005641003124388748,2.099440699494729
-0.000378972505800464,0.006610230442805745,1.667215088108342
-0.000378682505800464,-0.00632162721145588,1.733580437888139
